<svg width="546" height="243" viewBox="0 0 546 243" fill="none" xmlns="http://www.w3.org/2000/svg">
<path d="M15.9837 17.1114L31.4002 0.551515H545.448V208.804L513.776 242.115H0.551515V33.6882L15.9837 17.1114Z" fill="#162934" stroke="#A3F3FB" stroke-width="1.10303"/>
<mask id="mask0_75_1066" style="mask-type:alpha" maskUnits="userSpaceOnUse" x="0" y="0" width="546" height="243">
<path d="M15.9837 17.1114L31.4002 0.551515H545.448V208.247L528.243 225.734L512.127 242.115H0.551515V33.6882L15.9837 17.1114Z" fill="#162934" stroke="#A3F3FB" stroke-width="1.10303"/>
</mask>
<g mask="url(#mask0_75_1066)">
<rect x="-17.6487" y="-9.92725" width="580.194" height="63.9758" fill="#A3F3FB"/>
</g>
<path d="M546 221.709V242.667H526.145L546 221.709Z" fill="#A3F3FB"/>
</svg>
