<svg width="153" height="41" viewBox="0 0 153 41" fill="none" xmlns="http://www.w3.org/2000/svg">
<path d="M136.063 0H0V26.9577L19.4376 40.1823H86.1947H152.952V14.2418L136.063 0Z" fill="white"/>
</svg>
