<svg width="351" height="207" viewBox="0 0 351 207" fill="none" xmlns="http://www.w3.org/2000/svg">
<g clip-path="url(#clip0_75_1825)">
<path d="M8.79348 0.264614H40.4033L45.694 4.53405H154.035L159.439 0.171875H335.929H350.349V22.0102V198.338L341.672 205.373L287.4 205.129L281.937 201.522L214.649 201.625L211.187 205.129L8.79348 205.373L0.182251 198.424V6.43348L8.79348 0.264614Z" stroke="#A3F3FB" stroke-width="0.5" stroke-miterlimit="10"/>
</g>
<g clip-path="url(#clip1_75_1825)">
<path d="M247.843 206.418L244.557 203.798H247.093L250.38 206.418H247.843Z" fill="#A3F3FB"/>
<path d="M228.92 206.418L225.633 203.798H228.169L231.456 206.418H228.92Z" fill="#A3F3FB"/>
<path d="M233.869 206.418L230.582 203.798H233.118L236.405 206.418H233.869Z" fill="#A3F3FB"/>
<path d="M238.527 206.418L235.24 203.798H237.777L241.063 206.418H238.527Z" fill="#A3F3FB"/>
<path d="M243.186 206.418L239.899 203.798H242.435L245.721 206.418H243.186Z" fill="#A3F3FB"/>
<path d="M252.502 206.418L249.215 203.798H251.751L255.038 206.418H252.502Z" fill="#A3F3FB"/>
<path d="M257.16 206.418L253.873 203.798H256.41L259.696 206.418H257.16Z" fill="#A3F3FB"/>
<path d="M261.945 206.418L258.823 203.798H261.232L264.354 206.418H261.945Z" fill="#A3F3FB"/>
<path d="M266.768 206.418L263.481 203.798H266.017L269.304 206.418H266.768Z" fill="#A3F3FB"/>
<path d="M271.426 206.418L268.139 203.798H270.675L273.962 206.418H271.426Z" fill="#A3F3FB"/>
<path d="M276.084 206.418L272.797 203.798H275.333L278.62 206.418H276.084Z" fill="#A3F3FB"/>
<path d="M280.742 206.418L277.456 203.798H279.991L283.278 206.418H280.742Z" fill="#A3F3FB"/>
<path d="M224.261 206.418L220.975 203.798H223.511L226.797 206.418H224.261Z" fill="#A3F3FB"/>
<path d="M219.603 206.418L216.316 203.797H218.852L222.139 206.418H219.603Z" fill="#A3F3FB"/>
<path d="M243.186 206.418L239.899 203.798H242.435L245.721 206.418H243.186Z" fill="#A3F3FB"/>
</g>
<defs>
<clipPath id="clip0_75_1825">
<rect width="350.532" height="205.544" fill="white"/>
</clipPath>
<clipPath id="clip1_75_1825">
<rect width="66.962" height="3.20253" fill="white" transform="matrix(1 0 0 -1 216.316 207)"/>
</clipPath>
</defs>
</svg>
