<svg width="69" height="484" viewBox="0 0 69 484" fill="none" xmlns="http://www.w3.org/2000/svg">
<path d="M63 6L6 51.1928V477.5" stroke="#A3F3FB" stroke-miterlimit="10"/>
<circle cx="6" cy="478" r="6" fill="#A3F3FB"/>
<circle cx="63" cy="6" r="6" fill="#A3F3FB"/>
</svg>
