<svg width="785" height="463" viewBox="0 0 785 463" fill="none" xmlns="http://www.w3.org/2000/svg">
<g opacity="0.1" filter="url(#filter0_b_2_26)">
<path d="M369.608 5L33.168 5.20654L1 30.8664V436.754L31.7094 461.457H471.014H580.126L749.804 462L781 436.754V31.3526L748.879 5H369.608Z" fill="white"/>
</g>
<path d="M90.5927 5.20654H33.168L1 30.8664V436.754L31.7094 461.457H471.014H580.126L749.804 462L781 436.754V31.3526L748.879 5H369.608" stroke="#A3F3FB" stroke-miterlimit="10"/>
<path d="M13 252.589L1 243L1.54545 332L13 322.685V252.589Z" fill="#A3F3FB"/>
<path d="M115.5 0L101 12H339.909L354.768 0H115.5Z" fill="#A3F3FB"/>
<path d="M705.375 446L724.72 462H716.4L696.88 446H705.375Z" fill="#A3F3FB"/>
<path d="M691.935 446L711.28 462H702.96L683.44 446H691.935Z" fill="#A3F3FB"/>
<path d="M678.495 446L697.84 462H689.52L670 446H678.495Z" fill="#A3F3FB"/>
<path d="M784.5 23.5V1H758L784.5 23.5Z" fill="#A3F3FB"/>
<defs>
<filter id="filter0_b_2_26" x="-199" y="-195" width="1180" height="857" filterUnits="userSpaceOnUse" color-interpolation-filters="sRGB">
<feFlood flood-opacity="0" result="BackgroundImageFix"/>
<feGaussianBlur in="BackgroundImageFix" stdDeviation="100"/>
<feComposite in2="SourceAlpha" operator="in" result="effect1_backgroundBlur_2_26"/>
<feBlend mode="normal" in="SourceGraphic" in2="effect1_backgroundBlur_2_26" result="shape"/>
</filter>
</defs>
</svg>
