<svg width="1336" height="1342" viewBox="0 0 1336 1342" fill="none" xmlns="http://www.w3.org/2000/svg">
<g filter="url(#filter0_f_75_914)">
<ellipse cx="668" cy="671" rx="268" ry="271" fill="url(#paint0_radial_75_914)"/>
</g>
<defs>
<filter id="filter0_f_75_914" x="0" y="0" width="1336" height="1342" filterUnits="userSpaceOnUse" color-interpolation-filters="sRGB">
<feFlood flood-opacity="0" result="BackgroundImageFix"/>
<feBlend mode="normal" in="SourceGraphic" in2="BackgroundImageFix" result="shape"/>
<feGaussianBlur stdDeviation="200" result="effect1_foregroundBlur_75_914"/>
</filter>
<radialGradient id="paint0_radial_75_914" cx="0" cy="0" r="1" gradientUnits="userSpaceOnUse" gradientTransform="translate(686.327 663.405) rotate(-125.432) scale(267.158 266.199)">
<stop stop-color="#FFFFED"/>
<stop offset="0.317708" stop-color="#81F2FF"/>
<stop offset="0.604167" stop-color="#00A3FF"/>
<stop offset="1" stop-color="#0B161D" stop-opacity="0"/>
</radialGradient>
</defs>
</svg>
