<svg width="340" height="391" viewBox="0 0 340 391" fill="none" xmlns="http://www.w3.org/2000/svg">
<g opacity="0.1" filter="url(#filter0_b_75_2507)">
<path d="M154.474 0.853027L25.8263 1.01856L0.0444336 21.5843V369.893L24.6573 389.692H235.749L314.193 390.127L339.195 369.893V21.974L313.451 0.853027H154.474Z" fill="white"/>
</g>
<defs>
<filter id="filter0_b_75_2507" x="-160.251" y="-159.442" width="659.741" height="709.864" filterUnits="userSpaceOnUse" color-interpolation-filters="sRGB">
<feFlood flood-opacity="0" result="BackgroundImageFix"/>
<feGaussianBlur in="BackgroundImageFix" stdDeviation="80.1475"/>
<feComposite in2="SourceAlpha" operator="in" result="effect1_backgroundBlur_75_2507"/>
<feBlend mode="normal" in="SourceGraphic" in2="effect1_backgroundBlur_75_2507" result="shape"/>
</filter>
</defs>
</svg>
