<svg width="43" height="13" viewBox="0 0 43 13" fill="none" xmlns="http://www.w3.org/2000/svg">
<path d="M17.1213 0L32.626 12.8236H25.9577L10.3129 0H17.1213Z" fill="#A3F3FB"/>
<path d="M27.4342 0L42.939 12.8236H36.2707L20.6259 0H27.4342Z" fill="#A3F3FB"/>
<path d="M6.80827 0L22.313 12.8236H15.6447L-8.01086e-05 0H6.80827Z" fill="#A3F3FB"/>
</svg>
